…
``` r
vq_anno %>% group_by(v_gene, v_call, full_length) %>% summarize(n())
```

    ## # A tibble: 734 x 4
    ## # Groups:   v_gene, v_call [?]
    ##    v_gene   v_call                                       full_length `n()`
    ##    <chr>    <chr>                                        <chr>       <int>
    ##  1 IGHV1-18 Homsap IGHV1-18*01 F                         False          36
    ##  2 IGHV1-18 Homsap IGHV1-18*01 F                         True          331
    ##  3 IGHV1-18 Homsap IGHV1-18*01 F,Homsap IGHV1-18*04 F    False          16
    ##  4 IGHV1-18 Homsap IGHV1-18*04 F                         False           9
    ##  5 IGHV1-18 Homsap IGHV1-18*04 F                         True           11
    ##  6 IGHV1-18 Homsap IGHV1-58*01 F,Homsap IGHV1-58*02 F,H… False           1
    ##  7 IGHV1-18 <NA>                                         False         436
    ##  8 IGHV1-18 <NA>                                         True            1
    ##  9 IGHV1-2  Homsap IGHV1-2*02 F                          False           4
    ## 10 IGHV1-2  Homsap IGHV1-2*02 F                          True           90
    ## # ... with 724 more rows
…
